{
  "sharedgituser": "MxCSvi4G3LECcT83FDgIvjCGWgKiyyCj",
  "sharedgitpwd": "MxCSvi4G3LFBawjJ0z1IZ8H1k4SS2K3d",
  "sharedgitaccesstoken": "bRmPiZwXlgaJPuo/4ZZievwkWtBhBKseUizwAzvzIqQu9X15fIQnlCzmYGuEgjKY1cTmHwI+YejtIX9jiITUMg9Qd6KuJ+526gi07XGyoXhc88stZUAZfg==",
  "commentrepoowner": "Mang0B0x",
  "commentreponame": "comments",
  "repacks": [
    /*{
      "repackname": "vmangos",
      "infourl": "https://gitee.com/vmangos/vm_bin/raw/master/repackinfo.json",
      "game": "wow",
      "gameversion": "112",
      "lang": "zhCN",
      "tags": [ "fun","eluna"],
      "folderraw": "vm_raw",
      "folderbin": "vm_bin",
      "launcher": "WEMULauncher.exe"
    },
    {
      "repackname": "sunwell",
      "infourl": "https://gitee.com/vmangos/sw_bin/raw/master/repackinfo.json",
      "game": "wow",
      "gameversion": "335",
      "lang": "zhCN",
      "tags": [ "fun","eluna"],
      "folderraw": "sw_raw",
      "folderbin": "sw_bin",
      "launcher": "phpStudy/phpStudy.exe"
    },*/
    {
      "repackname": "mangos-tbc",
      "instruction": "this is a wonderful repack",
      "logourl": "https://gitee.com/vmangos/cmtbc_bin/raw/master/logo.png",
      "game": "wow",
      "gameversion": "243",
      "lang": "zhCN",
      "tags": [ "fun", "eluna" ],
      "folderraw": "cmtbc_raw",
      "folderbin": "cmtbc_bin",
      "launcher": "WEMULauncher.exe",
      "forwarderclientconf": "",
      "forwarderserverconf": "",
      "repolists": [
        "database-1-1|https://gitee.com/vmangos/cmtbc_database/raw/master/",
        "website-1-1|https://gitee.com/vmangos/cmtbc_website/raw/master/",
        "dbc-1-1|https://gitee.com/vmangos/cmtbc_dbc/raw/master/",
        "maps-1-1|https://gitee.com/vmangos/cmtbc_maps/raw/master/",
        "vmaps-1-1|https://gitee.com/vmangos/cmtbc_vmaps/raw/master/",
        "mmaps-1-1|https://gitee.com/vmangos/cmtbc_mmaps/raw/master/",
        "bin-1-1|https://gitee.com/vmangos/cmtbc_bin/raw/master/"
      ]
    },
    {
      "repackname": "wow_243",
      "instruction": "wow 2.4.3 8606 中文客户端",
      "logourl": "https://gitee.com/wow243/bin1/raw/master/logo.jpg",
      "game": "client",
      "gameversion": "243",
      "lang": "zhCN",
      "tags": [ "fun", "client", "test1", "test2", "test3", "test4", "test5", "test6", "test7", "test8", "test9", "test10", "test11", "test12", "test13", "test14", "test15", "test16", "test17", "test18", "test19", "test20" ],
      "folderraw": "wow243_raw",
      "folderbin": "wow243_bin",
      "launcher": "wow.exe",
      "forwarderclientconf": "",
      "forwarderserverconf": "",
      "repolists": [
        "DatazhCN-3-3|https://gitee.com/wow243/zhCN3/raw/master/",
        "DatazhCN-2-3|https://gitee.com/wow243/zhCN2/raw/master/",
        "DatazhCN-1-3|https://gitee.com/wow243/zhCN1/raw/master/",
        "Datacommon-8-8|https://gitee.com/wow243/common8/raw/master/",
        "Datacommon-7-8|https://gitee.com/wow243/common7/raw/master/",
        "Datacommon-6-8|https://gitee.com/wow243/common6/raw/master/",
        "Datacommon-5-8|https://gitee.com/wow243/common5/raw/master/",
        "Datacommon-4-8|https://gitee.com/wow243/common4/raw/master/",
        "Datacommon-3-8|https://gitee.com/wow243/common3/raw/master/",
        "Datacommon-2-8|https://gitee.com/wow243/common2/raw/master/",
        "Datacommon-1-8|https://gitee.com/wow243/common1/raw/master/",
        "Dataexpansion-4-4|https://gitee.com/wow243/expansion4/raw/master/",
        "Dataexpansion-3-4|https://gitee.com/wow243/expansion3/raw/master/",
        "Dataexpansion-2-4|https://gitee.com/wow243/expansion2/raw/master/",
        "Dataexpansion-1-4|https://gitee.com/wow243/expansion1/raw/master/",
        "Datapatch-3-3|https://gitee.com/wow243/patch3/raw/master/",
        "Datapatch-2-3|https://gitee.com/wow243/patch2/raw/master/",
        "Datapatch-1-3|https://gitee.com/wow243/patch1/raw/master/",
        "Datapatch2-1-1|https://gitee.com/wow243/patch21/raw/master/",
        "bin-1-1|https://gitee.com/wow243/bin1/raw/master/"
      ]
    },
    {
      "repackname": "wow243server",
      "instruction": "wow 2.4.3 联机娱乐",
      "logourl": "https://gitee.com/wow243/w243server_bin1/raw/master/logo.png",
      "game": "server",
      "gameversion": "243",
      "lang": "zhCN",
      "tags": [ "fun", "server" ],
      "folderraw": "wow243server_raw",
      "folderbin": "wow243server_bin",
      "launcher": "WEMULauncher.exe",
      "forwarderclientconf": "https://gitee.com/wow243/w243server_bin1/raw/master/appclient.json",
      "forwarderserverconf": "https://gitee.com/wow243/w243server_bin1/raw/master/appserver.json",
      "repolists": [
        "w243server_bin1-1-1|https://gitee.com/wow243/w243server_bin1/raw/master/"
      ]
    }
  ]
}