{
  "ClientSeed": "179D3DC3235629D07113A9B3867F97A7",
  "ClientBuild": 42597,
  "ServerBuild": 6005,
  "ServerAddress": "logon.wow-60.com",
  "ServerPort": 3724,
  "ReportedOS": "OSX",
  "ReportedPlatform": "x86",
  "ExternalAddress": "127.0.0.1",
  "RestPort": 8081,
  "BNetPort": 1119,
  "RealmPort": 8084,
  "InstancePort": 8606,
  "DebugOutput": false,
  "PacketsLog": false,
  "ServerSpellDelay": 15,
  "ClientSpellDelay": 15
}