Id,DifficultyId,SpellVisualId,Probability,Flags,Priority,SpellIconFileId,ActiveIconFileId,ViewerUnitConditionId,ViewerPlayerConditionId,CasterUnitConditionId,CasterPlayerConditionId,SpellId
316810,0,107,1,0,1,0,0,0,0,0,0,33389
316812,0,107,1,0,1,0,0,0,0,0,0,33392
322463,0,9655,1,0,1,0,0,0,0,0,0,42776
322464,0,9655,1,0,1,0,0,0,0,0,0,42777