SpellId,NameSubText,Description,AuraDescription
"32950","","",""
"33388","Apprentice","",""
"33389","","Allows the player to ride basic ground mounts that require a riding skill of 75.",""
"33391","Journeyman","",""
"33392","","Allows the player to ride swift ground mounts that require a riding skill of 150.",""
"5202","死亡决斗","","决斗失败玩家将不可再复活"
"5165","硬核模式","","硬核模式玩家死亡后将不可再复活"
"67","死亡决斗人头数","","记录着死亡决斗胜者光辉"