Id,ClassId,SubclassId,Material,InventoryType,RequiredLevel,SheatheType,RandomProperty,ItemRandomSuffixGroupId,SoundOverrideSubclassId,ScalingStatDistributionId,IconFileDataId,ItemGroupSoundsId,ContentTuningId,MaxDurability,AmmoType,DamageType1,DamageType2,DamageType3,DamageType4,DamageType5,Resistances1,Resistances2,Resistances3,Resistances4,Resistances5,Resistances6,Resistances7,MinDamage1,MinDamage2,MinDamage3,MinDamage4,MinDamage5,MaxDamage1,MaxDamage2,MaxDamage3,MaxDamage4,MaxDamage5
2947,2,16,1,25,1,0,0,0,-1,0,132410,8,0,200,0,0,0,0,0,0,0,0,0,0,0,0,0,1,0,0,0,0,3,0,0,0,0
3111,2,16,1,25,1,0,0,0,-1,0,132410,8,0,200,0,0,0,0,0,0,0,0,0,0,0,0,0,1,0,0,0,0,3,0,0,0,0
25861,2,16,1,25,1,0,0,0,-1,0,132410,8,0,200,0,0,0,0,0,0,0,0,0,0,0,0,0,1,0,0,0,0,3,0,0,0,0
