Id,DifficultyId,CastingTimeIndex,DurationIndex,RangeIndex,SchoolMask,Speed,LaunchDelay,MinDuration,SpellIconFileDataId,ActiveIconFileDataId,Attributes1,Attributes2,Attributes3,Attributes4,Attributes5,Attributes6,Attributes7,Attributes8,Attributes9,Attributes10,Attributes11,Attributes12,Attributes13,Attributes14,SpellId
314716,0,1,0,1,1,0,0,0,135426,0,192,0,0,0,0,0,0,0,0,0,0,0,0,0,2567
316220,0,1,0,74,1,20,0,0,132324,0,4259858,0,0,32768,0,0,0,0,0,0,0,0,0,0,2764
320003,0,7,0,1,1,0,0,0,136222,0,276824080,0,0,0,0,0,0,0,0,0,0,0,0,0,7355
450258,0,1,0,6,1,0,0,0,136103,0,262400,0,0,0,0,0,0,0,0,0,0,0,0,0,33389
449137,0,1,0,6,1,0,0,0,136103,0,262400,0,0,0,0,0,0,0,0,0,0,0,0,0,33392
459817,0,14,21,1,1,0,0,0,132267,136116,269582608,0,0,0,0,0,131072,0,0,0,0,0,0,0,42776
459818,0,14,21,1,1,0,0,0,132267,136116,269582608,0,0,0,0,0,131072,0,0,0,0,0,0,0,42777
451486,0,14,21,1,1,0,0,0,132232,136116,269582608,0,0,0,0,0,131072,0,0,0,0,0,0,0,33660
451558,0,14,21,1,1,0,0,0,132254,136116,269582608,0,0,0,0,0,131072,0,0,0,0,0,0,0,34406
451954,0,14,21,1,1,0,0,0,132227,136116,269582608,0,0,0,0,0,131072,0,0,0,0,0,0,0,34795
452104,0,14,21,1,1,0,0,0,132231,136116,269582608,0,0,0,0,0,131072,0,0,0,0,0,0,0,35018
452106,0,14,21,1,1,0,0,0,132235,136116,269582608,0,0,0,0,0,131072,0,0,0,0,0,0,0,35025
452108,0,14,21,1,1,0,0,0,132236,136116,269582608,0,0,0,0,0,131072,0,0,0,0,0,0,0,35027
452179,0,14,21,1,1,0,0,0,132229,136116,269582608,0,0,0,0,0,131072,0,0,0,0,0,0,0,35020
452180,0,14,21,1,1,0,0,0,132228,136116,269582608,0,0,0,0,0,131072,0,0,0,0,0,0,0,35022
453244,0,14,21,1,1,0,0,0,132258,136116,269582608,0,0,0,0,0,131072,0,0,0,0,0,0,0,35713
453313,0,14,21,1,1,0,0,0,132255,136116,269582608,0,0,0,0,0,131072,0,0,0,0,0,0,0,35710
453314,0,14,21,1,1,0,0,0,132256,136116,269582608,0,0,0,0,0,131072,0,0,0,0,0,0,0,35711
453315,0,14,21,1,1,0,0,0,132259,136116,269582608,0,0,0,0,0,131072,0,0,0,0,0,0,0,35712
453316,0,14,21,1,1,0,0,0,132260,136116,269582608,0,0,0,0,0,131072,0,0,0,0,0,0,0,35714
446672,0,1,39,1,64,0,0,0,136222,0,65536,136,0,0,0,0,0,0,0,0,0,0,0,0,28730
447791,0,1,6,4,64,0,0,0,135738,0,65552,67108864,0,0,0,0,0,0,0,0,0,0,0,0,28734
447800,0,16,8,5,2,0,0,0,135923,0,65536,0,524288,128,0,0,0,0,16777216,0,0,0,0,0,28880
314398,0,1,21,1,1,0,0,0,136120,0,64,0,0,0,0,0,0,0,0,0,0,0,0,0,822
319365,0,1,0,1,1,0,0,0,133123,0,151322688,0,0,0,0,0,0,0,0,0,0,0,0,0,6562
448140,0,1,18,4,8,0,0,0,132164,0,65536,4,67175424,0,0,0,0,0,0,0,0,0,0,0,30654
448202,0,1,18,4,8,0,0,0,132164,0,65536,4,67175424,0,0,0,0,0,0,0,0,0,0,0,30646
448206,0,1,18,4,8,0,0,0,132164,0,65536,4,67175424,0,0,0,0,0,0,0,0,0,0,0,30653
447216,0,1,18,4,8,0,0,0,132164,0,65536,4,67175424,0,0,0,0,0,0,0,0,0,0,0,30099
447218,0,1,18,4,8,0,0,0,132164,0,65536,4,67175424,0,0,0,0,0,0,0,0,0,0,0,30102
447220,0,1,18,4,8,0,0,0,132164,0,65536,4,67175424,0,0,0,0,0,0,0,0,0,0,0,30105